{

"spider": "http://vod.98nb.com/api/16_custom_spider.jar",

"sites": [
###{"key": "------首页------","name": "------↓首页↓------","type": 1,"api": "","playUrl": ""},

{"key":"csp_appysv2_天空影视V2","name":"天空影视","type":3,"api":"csp_AppYsV2","searchable":1,"quickSearch":0,"filterable":1,"ext":"https://www.tkys.tv/xgapp.php/v2/"},
{"key": "爱奇艺","name": "爱奇艺","type": 1,"api": "http://vod.98nb.com/pphp/iqiyi.php","playUrl": ""},
{"key": "优酷","name": "优酷","type": 1,"api": "http://vod.98nb.com/pphp/youku.php","playUrl": "","searchable": 1,"quickSearch":1},
{"key": "腾讯视频","name": "腾讯视频","type": 1,"api": "http://vod.98nb.com/pphp/qqz.php","playUrl": "","searchable": 1,"quickSearch":1},
{"key": "搜狐","name": "搜狐","type": 1,"api": "http://vod.98nb.com/pphp/sohu.php","playUrl": "","searchable": 0,"quickSearch":0},
{"key": "芒果","name": "芒果","type": 1,"api": "http://vod.98nb.com/pphp/mgtv.php","playUrl": "","searchable": 1,"quickSearch":0},
{"key": "bilibili","name": "BiliBili","type": 1,"api": "http://vod.98nb.com/pphp/bilibili.php","playUrl": "","searchable": 0,"quickSearch":0},


###{"key": "------推荐------","name": "------↓推荐↓------","type": 1,"api": "","playUrl": ""},

{"key": "lanmeiguojiang","name": "蓝莓影视(PHP)","type": 1,"api": "http://vod.98nb.com/pphp/lanmeiguojiang.php","playUrl": "","searchable":1,"quickSearch":0},
{"key": "zxzj","name": "在线之家(PHP)","type": 1,"api": "http://vod.98nb.com/pphp/zxzj.php","playUrl": "","searchable":1,"quickSearch":1},
{"key": "视觉","name": "视觉影视(PHP)","type": 1,"api": "http://vod.98nb.com/pphp/shijueyy1.php","playUrl": "","searchable":1,"quickSearch":1},
{"key": "libvio","name": "LIBVIO在线(PHP)","type": 1,"api": "http://vod.98nb.com/pphp/libvio.php","playUrl": "","searchable":1,"quickSearch":1},
{"key": "lezhu","name": "乐猪影视(PHP)","type": 1,"api": "http://jia.jumh989.gq/liang/pphp/lezhu.php","playUrl": "","searchable":1,"quickSearch":1},
{"key": "csp_appys_苍蓝资源","name": "苍蓝资源API","type": 3,"api": "csp_AppYs2","searchable": 1,"quickSearch": 0,"filterable": 1,"ext": "https://vip.ruifenglb.com:4433/api.php/app/"},
{"key": "饭团","name": "饭团影视(爬虫）","type": 3,"api": "csp_AppYs2","searchable": 1,"quickSearch": 1,"filterable": 1,"ext": "http://vod.98nb.com/json/ftqb.json"},
{"key": "csp_Ikan","name": "爱看影视(爬虫)","type": 3,"api": "csp_MacApi","searchable": 1,"quickSearch": 1,"filterable": 1,"ext": "http://vod.98nb.com/json/Ikan.json"},
{"key": "七七影视","name": "七七影视（爬虫）","type": 3,"api": "csp_AppYs2","searchable": 1,"quickSearch": 1,"filterable": 1,"ext": "http://vod.98nb.com/json/77ys.json"},
{"key": "csp_appys_鸾心","name": " 鸾心API","type": 3,"api": "csp_AppYs","searchable": 1,"quickSearch": 0,"filterable": 1, "ext": "http://ccxg.xazhutu.com/xgapp.php/v1/"},
{"key": "csp_EPangApp","name": "阿房影视(爬虫)","type": 3,"api": "csp_EPangApp","searchable": 0,"quickSearch": 1,"filterable": 1,"ext": "http://vod.98nb.com/json/EPang.json"},
{"key": "csp_wugui","name": "乌龟(爬虫)","type": 3,"api": "csp_AppSpider","searchable": 1,"quickSearch": 0,"filterable": 1,"ext": "http://vod.98nb.com/json/wugui.json"},
{"key": "csp_appys_粉象视界","name": "粉象视界API","type": 3,"api": "csp_AppYs","searchable": 1,"quickSearch": 1,"filterable": 1,"ext": "http://42.157.129.15:34444/lvdou_api.php/v1.vod"},	
{"key": "csp_appys_暖光影视","name": "暖光影视API","type": 3,"api": "csp_AppYs","searchable": 1,"quickSearch": 1,"filterable": 1,"ext": "https://app.bl210.com/api.php/v1.vod"},
{"key": "csp_appys_爱西西","name": "爱西西API","type": 3,"api": "csp_AppYs","searchable": 1,"quickSearch": 1,"filterable": 1,"ext": "https://myaixixi.com/xgapp.php/v1/"},
{"key": "csp_appys_绿箭影视","name": "绿箭影视API","type": 3,"api": "csp_AppYs","searchable": 1,"quickSearch": 1,"filterable": 1,"ext": "http://www.69ty.cc/mogai_api.php/v1.vod"},
{"key": "csp_appys_TV酷","name": "TV酷API","type": 3,"api": "csp_AppYs2","searchable": 0,"quickSearch": 0,"filterable": 1,"ext": "https://www.u23c.com/api.php/app/"},
{"key": "csp_appys_觅影影视","name": "觅影影视API","type": 3,"api": "csp_AppYs","searchable": 1,"quickSearch": 0,"filterable": 1,"ext": "http://ccxg.xazhutu.com/xgapp.php/v1/"},
{"key": "csp_appys_灵狐影视","name": "灵狐影视API","type": 3,"api": "csp_AppYs","searchable": 1,"quickSearch": 0,"filterable": 1,"ext": "http://x.dmntv.com/api.php/app/"},
{"key": "csp_appys_虎猫视频","name": "虎猫视频API","type": 3,"api": "csp_AppYs","searchable": 1,"quickSearch": 0,"filterable": 1,"ext": "https://humaosp.com/mogai_api.php/v1.vod"},
{"key": "csp_appys_美剧虫","name": "美剧虫API","type": 3,"api": "csp_AppYs","searchable": 1,"quickSearch": 0,"filterable": 1,"ext": "https://meijuchong.com/api.php/v1.vod"},
{"key": "csp_appys_雪人影视","name": "雪人影视API","type": 3,"api": "csp_AppYs","searchable": 1,"quickSearch": 0,"filterable": 1,"ext": "http://qqtvapp.com/xgapp.php/v1/"},
{"key": "csp_appys_大熊影视","name": "大熊影视API","type": 3,"api": "csp_AppYs","searchable": 1,"quickSearch": 0,"filterable": 1,"ext": "https://dxys2233.com/mogai_api.php/v1.vod"},
#{"key": "csp_appys_极光影院","name": "极光影院API","type": 3,"api": "csp_AppYs","searchable": 1,"quickSearch": 0,"filterable": 1,"ext": "http://app.winxz.cc/api.php/v1.vod"},
{"key": "csp_appys_我爱电影","name": "我爱电影API","type": 3,"api": "csp_AppYs","searchable": 1,"quickSearch": 0,"filterable": 1,"ext": "http://xg.5imv.net/api.php/app/"},
{"searchable":"1","quickSearch":"0","api":"csp_AppYs2","filterable":"1","ext":"https://ys.ling00.cn/api.php/v1.vod","key":"csp_优质_零刻影院","type":"3","name":"零刻影院API"},
{"searchable":"1","quickSearch":"0","api":"csp_AppYs2","filterable":"1","ext":"https://1080p.one/mogai_api.php/v1.vod","key":"csp_1080p","type":"3","name":"1080p蓝光API"},



###{"key": "------自建------","name": "------↓自建↓------","type": 1,"api": "","playUrl": ""},

{"key": "dnyyy","name": "奇优影院(PHP)","type": 1,"api": "http://vod.98nb.com/pphp/dnyyys.php","playUrl": "","searchable":1,"quickSearch":0},
{"key": "emsdn","name": "农民影视G(PHP)","type": 1,"api": "http://vod.98nb.com/pphp/emsdn.php","playUrl": "","searchable":1,"quickSearch":1},
{"key": "5imv","name": "我爱电影(PHP)","type": 1,"api": "http://vod.98nb.com/pphp/5imv.php","playUrl": "","searchable":0,"quickSearch":1},
{"key": "mozhatu","name": "莫扎兔(PHP)","type": 1,"api": "http://vod.98nb.com/pphp/mozhatu.php","playUrl": "","searchable":1,"quickSearch":1},
{"key": "1920i","name": "1920蓝光(PHP)","type": 1,"api": "http://vod.98nb.com/pphp/1920i.php","playUrl": "","searchable":1,"quickSearch":0},
{"key": "6dys","name": "六度影视(PHP)","type": 1,"api": "http://vod.98nb.com/pphp/6dys.php","playUrl": "","searchable":1,"quickSearch":0},
{"key": "saohuotv","name": "烧火TV(PHP)","type": 1,"api": "http://vod.98nb.com/pphp/saohuotv.php","playUrl": "","searchable":1,"quickSearch":0},
{"key": "豆角网","name": "豆角网(PHP)","type": 1,"api": "http://vod.98nb.com/pphp/doujiao.php","playUrl": "","searchable":1,"quickSearch":0},
{"key": "wnys","name": "万能影视(PHP)","type": 1,"api": "http://vod.98nb.com/pphp/wnys.php","playUrl": "","searchable":1,"quickSearch":0},
{"key": "99ys","name": "久久影视G(PHP)","type": 1,"api": "http://vod.98nb.com/pphp/99ys.php","playUrl": "","searchable":1,"quickSearch":0},
{"key": "fu210","name": "爱妖灵(PHP)","type": 1,"api": "http://vod.98nb.com/pphp/fu210.php","playUrl": "","searchable":1,"quickSearch":0}

],


"lives": [
{"group": "央视",
      "channels": [
{"name": "CCTV-1综合","urls": ["http://iptv.tvfix.org/hls/cctv1hd.m3u8"]},
{"name": "CCTV-2财经","urls": ["http://iptv.tvfix.org/hls/cctv2hd.m3u8"]},
{"name": "CCTV-3综艺","urls": ["http://iptv.tvfix.org/hls/cctv3hd.m3u8"]},
{"name": "CCTV-4中文国际","urls": ["http://iptv.tvfix.org/hls/cctv4hd.m3u8"]},
{"name": "CCTV-5体育","urls": ["http://111.63.117.13:6060/030000001000/CCTV-5/CCTV-5.m3u8"]},
{"name": "CCTV-5+体育赛事","urls": ["rtsp://183.252.166.199/PLTV/88888888/224/3221226714/40417236.smil"]},
{"name": "CCTV-6电影","urls": ["http://iptv.tvfix.org/hls/cctv6hd.m3u8"]},
{"name": "CCTV-7军事农业","urls": ["http://iptv.tvfix.org/hls/cctv7hd.m3u8"]},
{"name": "CCTV-8电视剧","urls": ["http://iptv.tvfix.org/hls/cctv8hd.m3u8"]},
{"name": "CCTV-9纪录","urls": ["http://iptv.tvfix.org/hls/cctv9hd.m3u8"]},
{"name": "CCTV-10科教","urls": ["http://iptv.tvfix.org/hls/cctv10hd.m3u8"]},
{"name": "CCTV-11戏曲","urls": ["http://iptv.tvfix.org/hls/cctv11hd.m3u8"]},
{"name": "CCTV-12社会与法","urls": ["http://iptv.tvfix.org/hls/cctv12hd.m3u8"]},
{"name": "CCTV-13新闻","urls": ["http://iptv.tvfix.org/hls/cctv13hd.m3u8"]},
{"name": "CCTV-14少儿","urls": ["http://iptv.tvfix.org/hls/cctv14hd.m3u8"]},
{"name": "CCTV-15音乐高清", "urls": [ "http://iptv.tvfix.org/hls/cctv15hd.m3u8" ] }, 
{"name": "CCTV-16奥林匹克高清", "urls": [ "http://liveop.cctv.cn/hls/CCTV16HD/playlist.m3u8"] }, 
{"name": "CCTV-17农业农村高清", "urls": ["http://iptv.tvfix.org/hls/cctv17hd.m3u8" ]},
{"name": "CGTN", "urls": [ "http://iptv.tvfix.org/hls/cgtnhd.m3u8" ] },
{"name": "CCTV-4K", "urls": ["http://liveop.cctv.cn/hls/4KHD/playlist.m3u8","https://tt.naifeimi.com/cctv4k.php" ]}
                ]
},
{"group": "卫视",
      "channels": [
{"name": "浙江卫视","urls": ["http://iptv.tvfix.org/hls/zjhd.m3u8"]},
{"name": "安徽卫视","urls": ["http://iptv.tvfix.org/hls/ahhd.m3u8"]},
{"name": "北京卫视","urls": ["http://iptv.tvfix.org/hls/brtv1hd.m3u8"]},
{"name": "东方卫视","urls": ["http://iptv.tvfix.org/hls/dfhd.m3u8"]},
{"name": "广东卫视","urls": ["http://iptv.tvfix.org/hls/gdhd.m3u8"]},
{"name": "黑龙江卫视","urls": ["http://iptv.tvfix.org/hls/hljhd.m3u8"]},
{"name": "湖北卫视","urls": ["http://iptv.tvfix.org/hls/hbhd.m3u8"]},
{"name": "湖南卫视","urls": ["http://iptv.tvfix.org/hls/hunanhd.m3u8"]},
{"name": "江苏卫视","urls": ["http://iptv.tvfix.org/hls/jshd.m3u8"]},
{"name": "辽宁卫视","urls": ["http://iptv.tvfix.org/hls/lnhd.m3u8"]},
{"name": "山东卫视","urls": ["http://iptv.tvfix.org/hls/sdhd.m3u8"]},
{"name": "深圳卫视","urls": ["http://iptv.tvfix.org/hls/szhd.m3u8"]},
{"name": "天津卫视","urls": ["http://iptv.tvfix.org/hls/tjhd.m3u8"]}
                 ]
},
{"group": "足球",
      "channels": [
{"name": "五星体育","urls": ["http://111.40.196.25/PLTV/88888888/224/3221225503/index.m3u8"]},
{"name": "魅力足球","urls": ["http://shbu.live.bestvcdn.com.cn:8080/live/program/live/mlyyhd/4000000/mnf.m3u8"]},
{"name": "劲爆体育","urls": ["http://shbu.live.bestvcdn.com.cn:8080/live/program/live/jbtyhd/4000000/mnf.m3u8"]},
{"name": "足球频道","urls": ["http://nmglive.imfc.cn/5n1r1c/182396.m3u8"]}
                  ]
},
{"group": "港台",
      "channels": [
{"name": "凤凰卫视","urls": ["http://223.110.235.3/ott.js.chinamobile.com/PLTV/3/224/3221228057/index.m3u8$JS1080P","http://223.110.236.10/ott.js.chinamobile.com/PLTV/3/224/3221228057/index.m3u8","http://117.169.124.43:6610/ysten-businessmobile/live/fhchinese/index.m3u8"]},
{"name": "凤凰资讯","urls": ["http://223.110.235.13/ott.js.chinamobile.com/PLTV/3/224/3221228098/index.m3u8","https://d158f3mdhc5kf4.cloudfront.net/p1_cbr_lo_720p.m3u8","http://117.169.124.37:6610/ysten-businessmobile/live/fhzixun/1.m3u8"]},
{"name": "凤凰香港","urls": ["http://223.110.245.136/PLTV/3/224/3221226975/index.m3u8"]},
{"name": "TVBS新闻","urls": ["rtmp://161.202.204.248/sat/tv551","rtmp://161.202.204.248/sat/tv552"]},
{"name": "台视","urls": ["rtmp://161.202.204.248/sat/tv071"]},
{"name": "天映经典","urls": ["http://50.7.161.82:8278/streams/d/Celestial2/playlist.m3u8"]},
{"name": "TVB星河","urls": ["http://50.7.161.82:8278/streams/d/Xinhe/playlist.m3u8"]},
{"name": "TVB翡翠","urls": ["http://116.199.5.51:8114/00000000/hls/index.m3u8?Fsv_chan_hls_se_idx=188&FvSeid=1&Fsv_ctype=LIVES&Fsv_otype=1&Provider_id=&Pcontent_id=.m3u8"]}
                   ]
},
{"group": "其他",
"channels": [
{"name": "蜡笔小新","urls": ["http://tt.naifeimi.com/lives/api.php?platform=huya&roomid=11352970"]},
{"name": "B站-蜡笔小新剧场版","urls": ["http://tt.naifeimi.com/lives/api.php?platform=huya&roomid=22693306"]},
{"name": "发哥经典","urls": ["http://tt.naifeimi.com/lives/api.php?platform=huya&roomid=11342387"]},
{"name": "恐怖将映轮播","urls": ["http://tt.naifeimi.com/lives/api.php?platform=huya&roomid=21059551"]},
{"name": "丧失系列轮播","urls": ["http://tt.naifeimi.com/lives/api.php?platform=huya&roomid=21059552"]},
{"name": "生化危机轮播","urls": ["http://tt.naifeimi.com/lives/api.php?platform=huya&roomid=21059553"]},
{"name": "恐怖系列轮播","urls": ["http://tt.naifeimi.com/lives/api.php?platform=huya&roomid=21059554"]},
{"name": "漫威系列轮播","urls": ["http://tt.naifeimi.com/lives/api.php?platform=huya&roomid=21059556"]},
{"name": "死神来了轮播","urls": ["http://tt.naifeimi.com/lives/api.php?platform=huya&roomid=11352903"]},
{"name": "成龙经典","urls": ["http://tt.naifeimi.com/lives/api.php?platform=huya&roomid=11342386"]},
{"name": "血腥圣诞","urls": ["http://tt.naifeimi.com/lives/api.php?platform=huya&roomid=11352959"]},
{"name": "牛得化经典","urls": ["http://tt.naifeimi.com/lives/api.php?platform=huya&roomid=11342424"]},
{"name": "周星星老湿","urls": ["http://tt.naifeimi.com/lives/api.php?platform=huya&roomid=11342412"]},
{"name": "Man vs. Wild系列轮播","urls": ["http://tt.naifeimi.com/lives/api.php?platform=huya&roomid=huya&roomid=21059555"]}
            ]
}
],


"parses": [
{"name": "NFMs","url": "http://vod.98nb.com/newjx/xjx.php?url="},
{"name":"解析聚合","type":3,"url":"Demo"},
{"name":"Json并发","type": 2,"url": "Parallel"},
{"name":"Json轮询","type": 2,"url": "Sequence"},
{"name":"扶风1","type": 1,"url": "http://jx.nokia.press/api/ffm?key=daozhangyyds&url=","ext": {"flag": ["qq", "腾讯", "mgtv", "芒果","qiyi","爱奇艺","奇艺","youku","优酷"]}},
{"name":"扶风2","type":1,"url":"https://vip.byteamone.cn/api/?key=0nca5Ltu48ziJtcFu1&url=","ext": {"flag": ["qq", "腾讯", "mgtv", "芒果","qiyi","爱奇艺","奇艺","youku","优酷"]}},
{"name":"龙腾1","type":1,"url":"https://lanmeiguojiang.com/altjx/musen.php/?url=","ext": {"flag": ["ltnb"]}},
{"name":"龙腾2","type":1,"url":"https://ltjx.jeeves.vip/home/api?type=ys&uid=1589472&key=aehjpzAHILOPQRU456&url=","ext": {"flag": ["ltnb"]}},
{"name":"龙腾3","type":1,"url":"https://ltjx.jeeves.vip/home/api?type=ys&uid=1589472&key=aehjpzAHILOPQRU456&url=","ext": {"flag": ["ltnb"]}},
{"name":"龙腾4","type":1,"url":"https://ltjx.jeeves.vip/home/api?type=ys&uid=1161020&key=afklnotvwFMPSUX356&url=","ext": {"flag": ["ltnb"]}},
{"name":"龙腾5","type":1,"url":"https://ltjx.jeeves.vip/home/api?type=ys&uid=803828&key=cdefimpzDQTUW23679&url=","ext": {"flag": ["ltnb"]}},
{"name":"苍蓝1","type":1,"url":"http://ts.yjhan.com:8090/api/?key=7z7hAqYzIAG8F8zZbq&url=","ext": {"flag": ["CL4K"]}},
{"name":"苍蓝2","type":1,"url":"https://tv.yjhan.com:4423/cljson3394/?url=","ext": {"flag": ["CL4K"]}},
{"name":"苍蓝3","type":1,"url":"http://ys.ling00.cn/json/?url=","ext": {"flag": ["CL4K"]}},
{"name":"苍蓝4","type":1,"url":"http://ts.yjhan.com:8090/api/?key=PGabLRt2ul11BxTlCC&url=","ext": {"flag": ["CL4K"]}},
{"name":"苍蓝5","type":1,"url":"http://ts.yjhan.com:8090/api/?key=ZqS8HhnDRUmTBQQfnh&url=","ext": {"flag": ["CL4K"]}},
{"name": "官解1","type": 1,"url": "https://jb.vjiangbei.com/home/api?type=ys&uid=2219260&key=hlmnpqswHIKQRSX146&url=","ext": {"flag": ["mgtv","芒果","qq","腾讯","qiyi","爱奇艺","奇艺","youku","优酷"]}},
{"name": "官解2","type": 1,"url": "https://a.dxzj88.com/jianghujx/?url=","ext": {"flag": ["qq","腾讯","youku","优酷","qiyi","爱奇艺","奇艺",
"bilibili","哔哩哔哩","哔哩","mgtv","芒果"]}},
{"name": "B站","type": 1,"url": "http://42.157.128.85:880/analysis/json/?uid=1735&my=bcdgkmpvxADJLNUYZ8&url=","ext": {"flag": ["youku","优酷","mgtv","芒果","qq","腾讯","qiyi","爱奇艺","奇艺"]}}, 
{"name": "麒麟","type": 1,"url": "https://api.qilin.best/home/api?type=ys&uid=2343358&key=cekpsuvxJKNOV34789&url=","ext": {"flag": ["ltnb","ziqie","qq","腾讯","youku","优酷","qiyi","爱奇艺","奇艺","mgtv","芒果","letv","乐视"]}},
{"name": "人人迷","type": 1,"url": "https://kuba.renrenmi.cc:2266/api/?key=a2bSwx5iAGx1g2qn4h&url=","ext": {"flag": ["renrenmi"]}},    
{"name": "雪人","type": 1,"url": "https://jx.zhanlangbu.com/json.php/?url=","ext": {"flag": ["xueren"]}},
{"name": "老弟解析","type": 1,"url": "http://jx.laodi.xyz:6699/api.php/user/jx?uid=4&ldkey=BLsUKYVZiWdmQc7bbpT3&url=","ext": {"flag": ["laodim3u8"]}}

],


"flags":["ruifenglb","youku", "qq","iqiyi","qiyi","letv","sohu","tudou","pptv","mgtv","cctv", "cntv","wasu","bilibili","xigua","1905","1920l","mim3u8","laodim3u8",  "leduo","CL4K","ltnb","rx","renrenmi","wuduyun","xueren","naifeimi","miaoparty","miaoparty2","miaoparty3","xfy","xfyun","x1play","fuckapp","duoduozy","ftqp2","ftqp3","ftqp4","ftqp5"],
"ijk": [{
"group": "软解码","options": [{"category": 4,"name": "opensles","value": "0"},{"category": 4,"name": "overlay-format","value": "842225234"},{"category": 4,"name": "framedrop","value": "1"},{"category": 4,"name": "soundtouch","value": "1"},{"category": 4,"name": "start-on-prepared","value": "1"},{"category": 1,"name": "http-detect-range-support","value": "0"},{"category": 1,"name": "fflags","value": "fastseek"},{"category": 2,"name": "skip_loop_filter","value": "48"},{"category": 4,"name": "reconnect","value": "1"},{"category": 4,"name": "max-buffer-size","value": "5242880"},{"category": 4,"name": "enable-accurate-seek","value": "0"},{"category": 4,"name": "mediacodec","value": "0"},{"category": 4,"name": "mediacodec-auto-rotate","value": "0"},{"category": 4,"name": "mediacodec-handle-resolution-change","value": "0"},{"category": 4,"name": "mediacodec-hevc","value": "0"}]},
          {
"group": "硬解码","options": [{"category":4,"name":"opensles","value":"0"},{"category":4,"name":"overlay-format","value":"842225234"},{"category":4,"name":"framedrop","value":"1"},{"category":4,"name":"soundtouch","value":"1"},{"category":4,"name":"start-on-prepared","value":"1"},{"category":1,"name":"http-detect-range-support","value":"0"},{"category":1,"name":"fflags","value":"fastseek"},{"category":2,"name":"skip_loop_filter","value":"48"},{"category":4,"name":"reconnect","value":"1"},{"category":4,"name":"enable-accurate-seek","value":"0"},{"category":4,"name":"mediacodec","value":"1"},{"category":4,"name":"mediacodec-auto-rotate","value":"1"},{"category":4,"name":"mediacodec-handle-resolution-change","value":"1"},{"category":4,"name":"mediacodec-hevc","value":"1"},{"category":1,"name":"dns_cache_timeout","value":"600000000"}]
          }],
"ads":["mimg.0c1q0l.cn","www.googletagmanager.com","www.google-analytics.com","mc.usihnbcq.cn","mg.g1mm3d.cn","mscs.svaeuzh.cn","cnzz.hhttm.top","tp.vinuxhome.com","cnzz.mmstat.com","www.baihuillq.com","s23.cnzz.com","z3.cnzz.com","c.cnzz.com","stj.v1vo.top","z12.cnzz.com","img.mosflower.cn","tips.gamevvip.com","ehwe.yhdtns.com","xdn.cqqc3.com","www.jixunkyy.cn","sp.chemacid.cn","hm.baidu.com","s9.cnzz.com","z6.cnzz.com","um.cavuc.com","mav.mavuz.com","wofwk.aoidf3.com","z5.cnzz.com","xc.hubeijieshikj.cn","tj.tianwenhu.com","xg.gars57.cn","k.jinxiuzhilv.com","cdn.bootcss.com","ppl.xunzhuo123.com","xomk.jiangjunmh.top","img.xunzhuo123.com","z1.cnzz.com","s13.cnzz.com","xg.huataisangao.cn","z7.cnzz.com","xg.huataisangao.cn","z2.cnzz.com","s96.cnzz.com","q11.cnzz.com","thy.dacedsfa.cn","xg.whsbpw.cn","s19.cnzz.com","z8.cnzz.com","s4.cnzz.com","f5w.as12df.top","ae01.alicdn.com","www.92424.cn","k.wudejia.com","vivovip.mmszxc.top","qiu.xixiqiu.com","cdnjs.hnfenxun.com","cms.qdwght.com"]}
